{
	"hyprland/workspaces": {
		"disable-scroll": false,
		"on-click": "activate",
		"active-only": false,
		"all-outputs": false,
		"format": "{icon}",
		"format-icons": {
			"1": "一",
			"2": "二",
			"3": "三",
			"4": "四",
			"5": "五",
			"6": "六",
			"7": "七",
			"8": "八",
			"9": "九",
			"10": "十",
			"urgent": "",
			"active": "",
			"default": ""
		},
		"persistent-workspaces": {
			"*": 5
		}
	},
	"wlr/taskbar": {
		"format": "{icon}",
		"icon-size": 20,
		"tooltip-format": "{title}",
		"on-click": "activate",
		"on-click-middle": "close",
		"on-click-right": "minimize-raise",
		"ignore-list": [
			"Alacritty",
			"kitty"
		],
		"app_ids-mapping": {
			"firefoxdeveloperedition": "firefox-developer-edition"
		},
		"rewrite": {
			"Mozilla Firefox": "Firefox",
			"Firefox Web Browser": "Firefox",
			"Foot Server": "Terminal"
		}
	},
	"hyprland/window": {
		"rewrite": {
			"(.*) - Brave": "$1",
			"(.*) - Mozilla Firefox": "$1",
			"(.*) - LibreWolf": "$1"
		},
		"separate-outputs": true
	},
	"custom/wl-gammarelay-temperature": {
		"format": "{} ",
		"exec": "wl-gammarelay-rs watch {t}",
		"on-scroll-up": "busctl --user -- call rs.wl-gammarelay / rs.wl.gammarelay UpdateTemperature n +100",
		"on-scroll-down": "busctl --user -- call rs.wl-gammarelay / rs.wl.gammarelay UpdateTemperature n -100"
	},
	"custom/wl-gammarelay-brightness": {
		"format": "{}% ",
		"exec": "wl-gammarelay-rs watch {bp}",
		"on-scroll-up": "busctl --user -- call rs.wl-gammarelay / rs.wl.gammarelay UpdateBrightness d +0.02",
		"on-scroll-down": "busctl --user -- call rs.wl-gammarelay / rs.wl.gammarelay UpdateBrightness d -0.02"
	},
	"custom/wl-gammarelay-gamma": {
		"format": "{}% γ",
		"exec": "wl-gammarelay-rs watch {g}",
		"on-scroll-up": "busctl --user -- call rs.wl-gammarelay / rs.wl.gammarelay UpdateGamma d +0.02",
		"on-scroll-down": "busctl --user -- call rs.wl-gammarelay / rs.wl.gammarelay UpdateGamma d -0.02"
	},
	"custom/wl-gammarelay-applet": {
		"format": "❍ {}",
		"exec": "wl-gammarelay-rs watch {t}",
		"on-click": "~/.local/bin/wl-gammarelay-applet",
		"on-scroll-up": "busctl --user -- call rs.wl-gammarelay / rs.wl.gammarelay UpdateTemperature n +100",
		"on-scroll-down": "busctl --user -- call rs.wl-gammarelay / rs.wl.gammarelay UpdateTemperature n -100"
	},
	"custom/updates": {
		"format": " {}",
		"tooltip-format": "{Package updates}",
		"escape": true,
		"return-type": "json",
		"exec": "~/.local/bin/updates",
		"restart-interval": 600,
		"on-click": "pypr toggle updates && hyprctl dispatch bringactivetotop",
		"tooltip": false
	},
	"custom/filemanager": {
		"format": "",
		"on-click": "exo-open --launch FileManager",
		"tooltip": false
	},
	"custom/firefox": {
		"format": "󰈹 ",
		"on-click": "firefox",
		"tooltip": false
	},
	"custom/librewolf": {
		"format": "󰈹 ",
		"on-click": "librewolf",
		"tooltip": false
	},
	"custom/chatgpt": {
		"format": "",
		"on-click": "firefox https://chat.openai.com",
		"tooltip": false
	},
	"custom/calculator": {
		"format": "",
		"on-click": "wofi-calc",
		"tooltip": false
	},
	"custom/appmenu": {
		"format": " ",
		"on-click": "wofi --show drun",
		"tooltip": false
	},
	"custom/exit": {
		"format": "",
		"on-click": "wlogout",
		"tooltip": false
	},
	"keyboard-state": {
		"numlock": true,
		"capslock": true,
		"format": "{name} {icon}",
		"format-icons": {
			"locked": "",
			"unlocked": ""
		}
	},
	"tray": {
		"icon-size": 20,
		"spacing": 10
	},
	"clock": {
		"timezone": "America/Mexico_City",
		"tooltip-format": "<tt><big>{calendar}</big></tt>",
		"format-alt": "{:%Y-%m-%d}"
	},
	"cpu": {
		"format": "/ C {usage}% "
	},
	"memory": {
		"format": "/ M {}% "
	},
	"disk": {
		"interval": 30,
		"format": "   {percentage_used}% ",
		"path": "/"
	},
	"network": {
		"format": "{ifname}",
		"format-wifi": "   {signalStrength}%",
		"format-ethernet": "󰈀  {ipaddr}",
		"format-disconnected": "",
		"tooltip-format": "󰈀 {ifname} via {gwaddri}",
		"tooltip-format-wifi": "   {essid} ({signalStrength}%)",
		"tooltip-format-ethernet": "  {ifname} ({ipaddr}/{cidr})",
		"tooltip-format-disconnected": "Disconnected",
		"max-length": 50
	},
	"battery": {
		"states": {
			"good": 95,
			"warning": 30,
			"critical": 15
		},
		"format": "{icon}   {capacity}%",
		"format-charging": "  {capacity}%",
		"format-plugged": "  {capacity}%",
		"format-alt": "{icon}  {time}",
		"format-icons": [
			" ",
			" ",
			" ",
			" ",
			" "
		]
	},
	"pulseaudio": {
		"format": "{icon} {volume}%",
		"format-bluetooth": "{volume}% {icon} {format_source}",
		"format-bluetooth-muted": " {icon} {format_source}",
		"format-muted": " {format_source}",
		"format-source": "{volume}% ",
		"format-source-muted": "",
		"format-icons": {
			"headphone": "",
			"hands-free": "",
			"headset": "",
			"phone": "",
			"portable": "",
			"car": "",
			"default": [
				"",
				" ",
				" "
			]
		},
		"on-click": "pavucontrol"
	},
	"bluetooth": {
		"format-disabled": "",
		"format-off": "",
		"interval": 30,
		"on-click": "blueman-manager"
	},
	"user": {
		"format": "{user}",
		"interval": 60,
		"icon": false
	}
}
