{
	"Configuration.h": [
		{
			"op": "Custom",
			"searchfor": "STRING_CONFIG_H_AUTHOR",
			"mask": "\".*\"",
			"value": "\"hasecilu\"",
			"comment": "Applying custom changes for my 3D printer"
		},
		{
			"op": "Custom",
			"searchfor": "CUSTOM_MACHINE_NAME",
			"mask": "\".+\"",
			"value": "\"MyEnder3V2-422-UBL\""
		},
		{
			"op": "Custom",
			"searchfor": "DEFAULT_AXIS_STEPS_PER_UNIT",
			"mask": "{.*}",
			"value": "{ 80, 80, 400, 98.6 }",
			"comment": "Adjusting extruder"
		}
	],
	"Configuration_adv.h": [
		{
			"op": "CustomVal",
			"searchfor": "FILAMENT_CHANGE_UNLOAD_LENGTH",
			"value": "390",
			"comment": "MyEnder3V2"
		},
		{
			"op": "CustomVal",
			"searchfor": "FILAMENT_CHANGE_FAST_LOAD_LENGTH",
			"value": "390",
			"comment": "MyEnder3V2"
		}
	],
	"Version.h": []
}
